<svg xmlns="http://www.w3.org/2000/svg" width="24.737" height="24.772" viewBox="0 0 24.737 24.772">
  <g id="phone" transform="translate(-405.905 -6339.396)">
    <path id="Path_25962" data-name="Path 25962" d="M19.666,15.675a2.436,2.436,0,0,0-1.767-.81,2.52,2.52,0,0,0-1.788.805l-1.652,1.647c-.136-.073-.272-.141-.4-.209-.188-.094-.366-.183-.518-.277a17.956,17.956,0,0,1-4.3-3.921,10.593,10.593,0,0,1-1.412-2.227c.429-.392.826-.8,1.213-1.192.146-.146.293-.3.439-.444a2.4,2.4,0,0,0,0-3.618L8.048,4c-.162-.162-.329-.329-.486-.5-.314-.324-.643-.659-.983-.972a2.475,2.475,0,0,0-1.752-.769A2.561,2.561,0,0,0,3.05,2.53l-.01.01L1.262,4.334A3.825,3.825,0,0,0,.127,6.765,9.166,9.166,0,0,0,.8,10.645a22.512,22.512,0,0,0,4,6.671,24.606,24.606,0,0,0,8.193,6.415,12.767,12.767,0,0,0,4.6,1.359c.11.005.225.01.329.01a3.94,3.94,0,0,0,3.017-1.3c.005-.011.016-.016.021-.026a11.91,11.91,0,0,1,.915-.946c.225-.214.455-.439.68-.674a2.608,2.608,0,0,0,.79-1.809,2.514,2.514,0,0,0-.805-1.793Zm1.872,5.506c-.005,0-.005.005,0,0-.2.22-.413.418-.638.638a13.757,13.757,0,0,0-1.009,1.046,2.521,2.521,0,0,1-1.966.831c-.078,0-.162,0-.241-.005a11.341,11.341,0,0,1-4.078-1.223,23.225,23.225,0,0,1-7.717-6.044,21.226,21.226,0,0,1-3.764-6.269A7.465,7.465,0,0,1,1.539,6.88,2.4,2.4,0,0,1,2.26,5.328L4.043,3.545a1.188,1.188,0,0,1,.795-.371,1.118,1.118,0,0,1,.763.366l.016.016c.319.3.622.607.941.936.162.167.329.335.5.507L8.482,6.426a1,1,0,0,1,0,1.621c-.152.152-.3.3-.45.45-.439.45-.857.868-1.312,1.276-.01.01-.021.016-.026.026a1.066,1.066,0,0,0-.272,1.187l.016.047a11.459,11.459,0,0,0,1.689,2.755l.005.005a19.19,19.19,0,0,0,4.643,4.225,7.133,7.133,0,0,0,.643.35c.188.094.366.183.518.277.021.01.042.026.063.037a1.134,1.134,0,0,0,.518.131,1.118,1.118,0,0,0,.795-.361L17.1,16.663a1.183,1.183,0,0,1,.79-.392,1.064,1.064,0,0,1,.753.382l.011.01,2.881,2.881A1.034,1.034,0,0,1,21.538,21.18Z" transform="translate(405.799 6339.066)" fill="#fff"/>
    <path id="Path_25963" data-name="Path 25963" d="M8.833,5.111a6.729,6.729,0,0,1,5.479,5.479.7.7,0,0,0,.7.586.936.936,0,0,0,.12-.01.706.706,0,0,0,.58-.816,8.136,8.136,0,0,0-6.63-6.63.71.71,0,0,0-.816.575A.7.7,0,0,0,8.833,5.111Z" transform="translate(410.441 6340.177)" fill="#fff"/>
    <path id="Path_25964" data-name="Path 25964" d="M20.116,11.777A13.4,13.4,0,0,0,9.2.86a.7.7,0,1,0-.23,1.391A11.88,11.88,0,0,1,15.4,5.582a11.845,11.845,0,0,1,3.33,6.426.7.7,0,0,0,.7.586.936.936,0,0,0,.12-.01A.693.693,0,0,0,20.116,11.777Z" transform="translate(410.514 6338.546)" fill="#fff"/>
  </g>
</svg>
