<svg xmlns="http://www.w3.org/2000/svg" width="84" height="84" viewBox="0 0 84 84">
  <g id="BYOD" transform="translate(17422 4092)">
    <rect id="Rectangle_718" data-name="Rectangle 718" width="84" height="84" rx="4" transform="translate(-17422 -4092)" fill="#e1edff"/>
    <path id="Icon_material-devices" data-name="Icon material-devices" d="M8.25,10.125H45.375V6H8.25a4.137,4.137,0,0,0-4.125,4.125V32.813H0V39H28.875V32.813H8.25ZM47.438,14.25H35.063A2.069,2.069,0,0,0,33,16.313V36.938A2.069,2.069,0,0,0,35.063,39H47.438A2.069,2.069,0,0,0,49.5,36.938V16.313A2.069,2.069,0,0,0,47.438,14.25ZM45.375,32.813h-8.25V18.375h8.25Z" transform="translate(-17405 -4072)" fill="#004aad"/>
  </g>
</svg>
